ECE_550/Lab_4/simulation/qsim/FSM.msim.vcd
$comment
	File created using the following command:
		vcd file FSM.msim.vcd -direction
$end
$date
	Sat Sep 25 17:33:14 2021
$end
$version
	ModelSim Version 10.4d
$end
$timescale
	1ps
$end

$scope module FSM_traffic_light_vlg_vec_tst $end
$var reg 1 ! clock $end
$var reg 1 " walk $end
$var wire 1 # light [1] $end
$var wire 1 $ light [0] $end

$scope module i1 $end
$var wire 1 % gnd $end
$var wire 1 & vcc $end
$var wire 1 ' unknown $end
$var tri1 1 ( devclrn $end
$var tri1 1 ) devpor $end
$var tri1 1 * devoe $end
$var wire 1 + light[0]~output_o $end
$var wire 1 , light[1]~output_o $end
$var wire 1 - clock~input_o $end
$var wire 1 . walk~input_o $end
$var wire 1 / in~q $end
$var wire 1 0 state_N~16_combout $end
$var wire 1 1 state_C.S3~q $end
$var wire 1 2 state_N~15_combout $end
$var wire 1 3 state_C.S2~q $end
$var wire 1 4 state_N~17_combout $end
$var wire 1 5 state_N~18_combout $end
$var wire 1 6 state_C.S4~q $end
$var wire 1 7 out~4_combout $end
$var wire 1 8 state_N~14_combout $end
$var wire 1 9 state_C.S1~q $end
$var wire 1 : out~0_combout $end
$var wire 1 ; out~1_combout $end
$var wire 1 < out~2_combout $end
$var wire 1 = out~3_combout $end
$var wire 1 > out [1] $end
$var wire 1 ? out [0] $end
$upscope $end
$upscope $end
$enddefinitions $end
#0
$dumpvars
0!
1"
0$
0#
0%
1&
x'
1(
1)
1*
0+
0,
0-
1.
0/
00
01
12
03
14
15
06
17
08
09
0:
0;
0<
0=
0?
0>
$end
#20000
1!
1-
16
13
1/
1:
07
04
1;
18
05
#40000
0!
0-
#60000
1!
1-
19
06
1?
1+
17
1$
1=
0;
08
02
#80000
0!
0-
#100000
1!
1-
09
03
1>
0?
0+
1,
07
0:
1#
0$
0=
1;
12
18
#120000
0!
0-
#140000
1!
1-
19
13
0>
1?
1+
0,
17
1:
0#
1$
1=
0;
08
02
#160000
0!
0-
#180000
1!
1-
09
03
1>
0?
0+
1,
07
0:
1#
0$
0=
1;
12
18
#200000
0!
0-
#220000
1!
1-
19
13
0>
1?
1+
0,
17
1:
0#
1$
1=
0;
08
02
#240000
0!
0-
#260000
1!
1-
09
03
1>
0?
0+
1,
07
0:
1#
0$
0=
1;
12
18
#270000
0"
0.
0/
17
14
0;
08
15
#280000
0!
1"
1.
0-
#300000
1!
1-
16
13
1/
0>
0,
1:
07
04
0#
1;
18
05
#320000
0!
0-
#340000
1!
1-
19
06
1?
1+
17
1$
1=
0;
08
02
#360000
0!
0-
#380000
1!
1-
09
03
1>
0?
0+
1,
07
0:
1#
0$
0=
1;
12
18
#400000
0!
0-
#420000
1!
1-
19
13
0>
1?
1+
0,
17
1:
0#
1$
1=
0;
08
02
#440000
0!
0-
#460000
1!
1-
09
03
1>
0?
0+
1,
07
0:
1#
0$
0=
1;
12
18
#480000
0!
0-
#500000
0"
1!
0.
1-
0/
17
14
0;
08
15
#520000
0!
0-
#530000
1"
1.
#540000
1!
1-
16
13
1/
0>
0,
1:
07
04
0#
1;
18
05
#560000
0!
0-
#580000
1!
1-
19
06
1?
1+
17
1$
1=
0;
08
02
#600000
0!
0-
#620000
1!
1-
09
03
1>
0?
0+
1,
07
0:
1#
0$
0=
1;
12
18
#640000
0!
0-
#660000
1!
1-
19
13
0>
1?
1+
0,
17
1:
0#
1$
1=
0;
08
02
#680000
0!
0-
#700000
1!
1-
09
03
1>
0?
0+
1,
07
0:
1#
0$
0=
1;
12
18
#720000
0"
0!
0.
0-
0/
17
14
0;
08
15
#730000
1"
1.
#740000
1!
1-
16
13
1/
0>
0,
1:
07
04
0#
1;
18
05
#760000
0"
0!
0.
0-
0/
#770000
1"
1.
#780000
1!
1-
19
06
1/
1?
1+
17
1$
1=
0;
08
02
#800000
0!
0-
#820000
1!
1-
09
03
1>
0?
0+
1,
07
0:
1#
0$
0=
1;
12
18
#840000
0!
0-
#860000
1!
1-
19
13
0>
1?
1+
0,
17
1:
0#
1$
1=
0;
08
02
#880000
0!
0-
#900000
1!
1-
09
03
1>
0?
0+
1,
07
0:
1#
0$
0=
1;
12
18
#920000
0!
0-
#940000
1!
1-
19
13
0>
1?
1+
0,
17
1:
0#
1$
1=
0;
08
02
#960000
0!
0-
#980000
1!
1-
09
03
1>
0?
0+
1,
07
0:
1#
0$
0=
1;
12
18
