ECE_550/Lab_4/simulation/qsim/FSM.msim.vcd
$comment
	File created using the following command:
		vcd file FSM.msim.vcd -direction
$end
$date
	Sun Sep 19 22:20:01 2021
$end
$version
	ModelSim Version 10.4d
$end
$timescale
	1ps
$end

$scope module FSM_vlg_vec_tst $end
$var reg 1 ! clock $end
$var wire 1 " Light $end

$scope module i1 $end
$var wire 1 # gnd $end
$var wire 1 $ vcc $end
$var wire 1 % unknown $end
$var tri1 1 & devclrn $end
$var tri1 1 ' devpor $end
$var tri1 1 ( devoe $end
$var wire 1 ) Light~output_o $end
$var wire 1 * clock~input_o $end
$var wire 1 + state_N~19_combout $end
$var wire 1 , state_C.S0~q $end
$var wire 1 - state_C.S1~0_combout $end
$var wire 1 . state_C.S1~q $end
$var wire 1 / state_N~21_combout $end
$var wire 1 0 state_C.S2~q $end
$var wire 1 1 state_N~22_combout $end
$var wire 1 2 state_C.S3~q $end
$var wire 1 3 state_N~20_combout $end
$var wire 1 4 state_C.S4~q $end
$var wire 1 5 out~0_combout $end
$var wire 1 6 out~q $end
$upscope $end
$upscope $end
$enddefinitions $end
#0
$dumpvars
0!
0"
0#
1$
x%
1&
1'
1(
0)
0*
0+
0,
1-
0.
1/
00
01
02
03
04
05
06
$end
#20000
1!
1*
10
1.
11
0/
#40000
0!
0*
#60000
1!
1*
12
00
13
01
#80000
0!
0*
#100000
1!
1*
14
02
03
1+
15
#120000
0!
0*
#140000
1!
1*
04
1,
16
1)
1"
0-
0+
05
#160000
0!
0*
#180000
1!
1*
0.
0,
06
0)
0"
1/
1-
#200000
0!
0*
#220000
1!
1*
10
1.
11
0/
#240000
0!
0*
#260000
1!
1*
12
00
13
01
#280000
0!
0*
#300000
1!
1*
14
02
03
1+
15
#320000
0!
0*
#340000
1!
1*
04
1,
16
1)
1"
0-
0+
05
#360000
0!
0*
#380000
1!
1*
0.
0,
06
0)
0"
1/
1-
#400000
0!
0*
#420000
1!
1*
10
1.
11
0/
#440000
0!
0*
#460000
1!
1*
12
00
13
01
#480000
0!
0*
#500000
1!
1*
14
02
03
1+
15
#520000
0!
0*
#540000
1!
1*
04
1,
16
1)
1"
0-
0+
05
#560000
0!
0*
#580000
1!
1*
0.
0,
06
0)
0"
1/
1-
#600000
0!
0*
#620000
1!
1*
10
1.
11
0/
#640000
0!
0*
#660000
1!
1*
12
00
13
01
#680000
0!
0*
#700000
1!
1*
14
02
03
1+
15
#720000
0!
0*
#740000
1!
1*
04
1,
16
1)
1"
0-
0+
05
#760000
0!
0*
#780000
1!
1*
0.
0,
06
0)
0"
1/
1-
#800000
0!
0*
#820000
1!
1*
10
1.
11
0/
#840000
0!
0*
#860000
1!
1*
12
00
13
01
#880000
0!
0*
#900000
1!
1*
14
02
03
1+
15
#920000
0!
0*
#940000
1!
1*
04
1,
16
1)
1"
0-
0+
05
#960000
0!
0*
#980000
1!
1*
0.
0,
06
0)
0"
1/
1-
