ECE_550/Lab_1/simulation/qsim/two_bit_adder.msim.vcd
$comment
	File created using the following command:
		vcd file two_bit_adder.msim.vcd -direction
$end
$date
	Thu Sep 02 16:02:12 2021
$end
$version
	ModelSim Version 10.4d
$end
$timescale
	1ps
$end

$scope module two_bit_adder_vlg_vec_tst $end
$var reg 2 ! a [0:1] $end
$var reg 2 " b [0:1] $end
$var reg 1 # cin $end
$var wire 1 $ cout $end
$var wire 1 % out [0] $end
$var wire 1 & out [1] $end

$scope module i1 $end
$var wire 1 ' gnd $end
$var wire 1 ( vcc $end
$var wire 1 ) unknown $end
$var tri1 1 * devclrn $end
$var tri1 1 + devpor $end
$var tri1 1 , devoe $end
$var wire 1 - out[1]~output_o $end
$var wire 1 . out[0]~output_o $end
$var wire 1 / cout~output_o $end
$var wire 1 0 b[1]~input_o $end
$var wire 1 1 a[1]~input_o $end
$var wire 1 2 b[0]~input_o $end
$var wire 1 3 cin~input_o $end
$var wire 1 4 a[0]~input_o $end
$var wire 1 5 fa1|or1~0_combout $end
$var wire 1 6 fa2|xor2~combout $end
$var wire 1 7 fa1|xor2~0_combout $end
$var wire 1 8 fa2|or1~0_combout $end
$upscope $end
$upscope $end
$enddefinitions $end
#0
$dumpvars
b0 !
b0 "
0#
0$
0&
0%
0'
1(
x)
1*
1+
1,
0-
0.
0/
00
01
02
03
04
05
06
07
08
$end
#20000
1#
13
17
1.
1%
#40000
b10 !
0#
14
03
#60000
1#
13
15
07
0.
0%
16
1-
1&
#80000
b11 !
b10 "
b1 !
0#
12
11
04
03
05
17
18
06
0-
1/
1.
1%
1$
0&
08
16
1-
0/
0$
1&
#100000
1#
13
15
07
0.
0%
18
06
0-
1/
1$
0&
#120000
b11 !
0#
14
03
#140000
1#
13
17
1.
1%
#160000
b11 "
b10 !
b1 "
b0 !
0#
01
04
10
02
03
05
07
0.
0%
08
16
1-
0/
0$
1&
#180000
1#
13
17
1.
1%
#200000
b10 !
0#
14
03
#220000
1#
13
15
07
0.
0%
18
06
0-
1/
1$
0&
#240000
b11 !
b11 "
b1 !
0#
12
11
04
03
05
17
16
1-
1.
1%
1&
06
0-
0&
#260000
1#
13
15
07
0.
0%
16
1-
1&
#280000
b11 !
0#
14
03
#300000
1#
13
17
1.
1%
#320000
b10 "
b10 !
b0 "
b0 !
0#
01
04
00
02
03
05
08
07
0.
0/
0$
0%
06
0-
0&
#340000
1#
13
17
1.
1%
#360000
b10 !
0#
14
03
#380000
1#
13
15
07
0.
0%
16
1-
1&
#400000
b11 !
b10 "
b1 !
0#
12
11
04
03
05
17
18
06
0-
1/
1.
1%
1$
0&
08
16
1-
0/
0$
1&
#420000
1#
13
15
07
0.
0%
18
06
0-
1/
1$
0&
#440000
b11 !
0#
14
03
#460000
1#
13
17
1.
1%
#480000
b11 "
b10 !
b1 "
b0 !
0#
01
04
10
02
03
05
07
0.
0%
08
16
1-
0/
0$
1&
#500000
1#
13
17
1.
1%
#520000
b10 !
0#
14
03
#540000
1#
13
15
07
0.
0%
18
06
0-
1/
1$
0&
#560000
b11 !
b11 "
b1 !
0#
12
11
04
03
05
17
16
1-
1.
1%
1&
06
0-
0&
#580000
1#
13
15
07
0.
0%
16
1-
1&
#600000
b11 !
0#
14
03
#620000
1#
13
17
1.
1%
#640000
b10 "
b10 !
b0 "
b0 !
0#
01
04
00
02
03
05
08
07
0.
0/
0$
0%
06
0-
0&
#660000
1#
13
17
1.
1%
#680000
b10 !
0#
14
03
#700000
1#
13
15
07
0.
0%
16
1-
1&
#720000
b11 !
b10 "
b1 !
0#
12
11
04
03
05
17
18
06
0-
1/
1.
1%
1$
0&
08
16
1-
0/
0$
1&
#740000
1#
13
15
07
0.
0%
18
06
0-
1/
1$
0&
#760000
b11 !
0#
14
03
#780000
1#
13
17
1.
1%
#800000
b11 "
b10 !
b1 "
b0 !
0#
01
04
10
02
03
05
07
0.
0%
08
16
1-
0/
0$
1&
#820000
1#
13
17
1.
1%
#840000
b10 !
0#
14
03
#860000
1#
13
15
07
0.
0%
18
06
0-
1/
1$
0&
#880000
b11 !
b11 "
b1 !
0#
12
11
04
03
05
17
16
1-
1.
1%
1&
06
0-
0&
#900000
1#
13
15
07
0.
0%
16
1-
1&
#920000
b11 !
0#
14
03
#940000
1#
13
17
1.
1%
#960000
b10 "
b10 !
b0 "
b0 !
0#
01
04
00
02
03
05
08
07
0.
0/
0$
0%
06
0-
0&
#980000
1#
13
17
1.
1%
